{
  "frame": 2,
  "id": 1,
  "coordinates": "(84, 146)",
  "bbox": "(22, 87, 146, 205)"
}{
  "frame": 3,
  "id": 1,
  "coordinates": "(85, 146)",
  "bbox": "(22, 87, 147, 205)"
}{
  "frame": 4,
  "id": 1,
  "coordinates": "(85, 147)",
  "bbox": "(22, 87, 149, 207)"
}{
  "frame": 5,
  "id": 1,
  "coordinates": "(85, 146)",
  "bbox": "(20, 84, 151, 207)"
}{
  "frame": 6,
  "id": 1,
  "coordinates": "(85, 146)",
  "bbox": "(19, 84, 151, 208)"
}{
  "frame": 7,
  "id": 1,
  "coordinates": "(85, 146)",
  "bbox": "(19, 83, 152, 209)"
}{
  "frame": 8,
  "id": 1,
  "coordinates": "(85, 145)",
  "bbox": "(18, 81, 153, 210)"
}{
  "frame": 9,
  "id": 1,
  "coordinates": "(86, 145)",
  "bbox": "(18, 81, 153, 210)"
}{
  "frame": 10,
  "id": 1,
  "coordinates": "(86, 145)",
  "bbox": "(17, 80, 154, 210)"
}{
  "frame": 11,
  "id": 1,
  "coordinates": "(87, 145)",
  "bbox": "(18, 80, 155, 211)"
}{
  "frame": 12,
  "id": 1,
  "coordinates": "(88, 146)",
  "bbox": "(19, 80, 157, 212)"
}{
  "frame": 12,
  "id": 3,
  "coordinates": "(155, 118)",
  "bbox": "(105, 76, 205, 161)"
}{
  "frame": 13,
  "id": 1,
  "coordinates": "(88, 146)",
  "bbox": "(20, 81, 157, 212)"
}{
  "frame": 13,
  "id": 3,
  "coordinates": "(156, 120)",
  "bbox": "(104, 76, 208, 165)"
}{
  "frame": 14,
  "id": 1,
  "coordinates": "(89, 147)",
  "bbox": "(21, 82, 157, 212)"
}{
  "frame": 14,
  "id": 3,
  "coordinates": "(157, 121)",
  "bbox": "(104, 76, 211, 166)"
}{
  "frame": 15,
  "id": 1,
  "coordinates": "(89, 147)",
  "bbox": "(21, 82, 157, 213)"
}{
  "frame": 15,
  "id": 3,
  "coordinates": "(159, 122)",
  "bbox": "(103, 74, 215, 170)"
}{
  "frame": 16,
  "id": 1,
  "coordinates": "(89, 147)",
  "bbox": "(20, 81, 158, 213)"
}{
  "frame": 16,
  "id": 3,
  "coordinates": "(162, 123)",
  "bbox": "(105, 75, 218, 171)"
}{
  "frame": 17,
  "id": 1,
  "coordinates": "(90, 147)",
  "bbox": "(20, 80, 159, 214)"
}{
  "frame": 17,
  "id": 3,
  "coordinates": "(164, 123)",
  "bbox": "(108, 75, 221, 171)"
}{
  "frame": 18,
  "id": 1,
  "coordinates": "(90, 146)",
  "bbox": "(19, 78, 161, 215)"
}{
  "frame": 18,
  "id": 3,
  "coordinates": "(167, 123)",
  "bbox": "(110, 75, 224, 171)"
}{
  "frame": 19,
  "id": 1,
  "coordinates": "(90, 146)",
  "bbox": "(20, 78, 161, 215)"
}{
  "frame": 19,
  "id": 3,
  "coordinates": "(169, 123)",
  "bbox": "(112, 75, 226, 171)"
}{
  "frame": 20,
  "id": 1,
  "coordinates": "(91, 147)",
  "bbox": "(22, 80, 161, 214)"
}{
  "frame": 20,
  "id": 3,
  "coordinates": "(172, 124)",
  "bbox": "(114, 75, 230, 172)"
}{
  "frame": 21,
  "id": 1,
  "coordinates": "(92, 148)",
  "bbox": "(23, 82, 161, 214)"
}{
  "frame": 21,
  "id": 3,
  "coordinates": "(175, 125)",
  "bbox": "(116, 76, 234, 174)"
}{
  "frame": 22,
  "id": 1,
  "coordinates": "(92, 149)",
  "bbox": "(24, 84, 160, 214)"
}{
  "frame": 22,
  "id": 3,
  "coordinates": "(178, 126)",
  "bbox": "(118, 76, 238, 176)"
}